{
  "project_info": {
    "project_number": "504967219050",
    "firebase_url": "https://directautoapp.firebaseio.com",
    "project_id": "directautoapp",
    "storage_bucket": "directautoapp.appspot.com"
  },
  "client": [
    {
      "client_info": {
        "mobilesdk_app_id": "1:504967219050:android:fa39dbff975383f8e50713",
        "android_client_info": {
          "package_name": "com.vallsoft.directionautoapp"
        }
      },
      "oauth_client": [
        {
          "client_id": "504967219050-53be6l38t6ssr4og6a79fng9vpsfdn9l.apps.googleusercontent.com",
          "client_type": 3
        }
      ],
      "api_key": [
        {
          "current_key": "AIzaSyBYEzT0jlir1VX36YKQAcoxPQ0Z3PgpcOk"
        }
      ],
      "services": {
        "appinvite_service": {
          "other_platform_oauth_client": [
            {
              "client_id": "504967219050-53be6l38t6ssr4og6a79fng9vpsfdn9l.apps.googleusercontent.com",
              "client_type": 3
            },
            {
              "client_id": "504967219050-vk3u803vnbcft4amrar58qrofoo97sgi.apps.googleusercontent.com",
              "client_type": 2,
              "ios_info": {
                "bundle_id": "vallsoft.DirectAutoApp"
              }
            }
          ]
        }
      }
    }
  ],
  "configuration_version": "1"
}